{
  "dataTitleTop": "整点秒杀",
  "dataTitle": [
    {
      "title": "凡士林修护精华露200ml",
      "price": "9.9",
      "imgUrl": "https://cloud.gemii.cc/lizcloud/fs/noauth/media/5ab20eea1e6d8a0037546372",
      "linkUrl": "ZKCJ/1K6X1/",
      "limitNUm":"35",
      "openTime":"10:00"
    },
    {
      "title": "奥妙洗衣液高浓度500g",
      "price": "9.9",
      "imgUrl": "https://cloud.gemii.cc/lizcloud/fs/noauth/media/5ab20eec1e6d8a001835ac77",
      "linkUrl": "1X9ZA/1K6X1/",
      "limitNUm":"45",
      "openTime":"12:00"
    },
    {
      "title": "力士精油香氛沐浴乳180ml*2",
      "price": "9.9",
      "imgUrl": "https://cloud.gemii.cc/lizcloud/fs/noauth/media/5ab20eed1e6d8a001835ac79",
      "linkUrl": "28IIV/1K6X1/",
      "limitNUm":"200",
      "openTime":"14:00"
    }
  ],
  "dataOneTop": "花弄影专区",
  "dataOne": [
    {
      "title": " 100节3层长无芯卷纸（10卷）*2",
      "price": "25",
      "imgUrl": "https://cloud.gemii.cc/lizcloud/fs/noauth/media/5ab9a63d1e6d8a00227a0d8e",
      "linkUrl": "D3A1/1K6X1/"
    },
    {
      "title": "凡花絮事系列三层有芯卷纸-130g（10卷）*2",
      "price": "48",
      "imgUrl": "https://cloud.gemii.cc/lizcloud/fs/noauth/media/5ab9a63d1e6d8a00227a0d8c",
      "linkUrl": "OBTM/1K6X1/"
    },
    {
      "title": "200抽2层抽取式面纸-135（3包装）*2",
      "price": "28",
      "imgUrl": "https://cloud.gemii.cc/lizcloud/fs/noauth/media/5ab9a63b1e6d8a00227a0d86",
      "linkUrl": "1ASWS/1K6X1/"
    },
    {
      "title": "凡花絮事系列150抽2层抽取式面纸-130（6连包）*2",
      "price": "25",
      "imgUrl": "https://cloud.gemii.cc/lizcloud/fs/noauth/media/5ab9a63a1e6d8a00227a0d7d",
      "linkUrl": "1M1GD/1K6X1/"
    },
    {
      "title": "凡花絮事系列120抽3层抽取式面纸-130（6连包） *2",
      "price": "26",
      "imgUrl": "https://cloud.gemii.cc/lizcloud/fs/noauth/media/5ab9a63e1e6d8a00397439f4",
      "linkUrl": "1X9ZY/1K6X1/"
    },
    {
      "title": "凡花絮事系列100抽3层抽取式面纸-133（24包装）",
      "price": "39.9",
      "imgUrl": "https://cloud.gemii.cc/lizcloud/fs/noauth/media/5ab9a64c1e6d8a0039743a04",
      "linkUrl": "1UQO/1K6X1/"
    },
    {
      "title": "凡花絮事系列150抽2层抽取式面纸-130（整箱销售）16包",
      "price": "29.9",
      "imgUrl": "https://cloud.gemii.cc/lizcloud/fs/noauth/media/5ab9b4881e6d8a00227a0de0",
      "linkUrl": "D3A9/1K6X1/"
    },
    {
      "title": "抽纸 本色纸竹浆纸不漂白 3层100抽18包",
      "price": "29.9",
      "imgUrl": "https://cloud.gemii.cc/lizcloud/fs/noauth/media/5ab9a6161e6d8a00227a0d46",
      "linkUrl": "OBTU/1K6X1/"
    },
    {
      "title": "抽纸 车用家用生活纸 2层150抽4提16包",
      "price": "29",
      "imgUrl": "https://cloud.gemii.cc/lizcloud/fs/noauth/media/5ab9ae7f1e6d8a00375467b4",
      "linkUrl": "ZKDV/1K6X1/"
    },
    {
      "title": "手帕纸 餐巾纸正品纸巾便携式 2层6条60包",
      "price": "25",
      "imgUrl": "https://cloud.gemii.cc/lizcloud/fs/noauth/media/5ab9a64b1e6d8a002703668d",
      "linkUrl": "1ASXG/1K6X1/"
    },
    {
      "title": "花弄影 无心卷10卷 *3提",
      "price": "29.9",
      "imgUrl": "https://cloud.gemii.cc/lizcloud/fs/noauth/media/5ab9a64b1e6d8a0039743a02",
      "linkUrl": "1M1H1/1K6X1/"
    },
    {
      "title": "花弄影 无心卷10卷 *4提",
      "price": "38.8",
      "imgUrl": "https://cloud.gemii.cc/lizcloud/fs/noauth/media/5ab9a6401e6d8a00397439f9",
      "linkUrl": "1XA0M/1K6X1/"
    },
    {
      "title": "花弄影 150抽2层18包",
      "price": "39",
      "imgUrl": "https://cloud.gemii.cc/lizcloud/fs/noauth/media/5ab9a6351e6d8a00375467a9",
      "linkUrl": "28IK7/1K6X1/"
    }
  ],
  "dataTwoTop": "女性卫品专区",
  "dataTwo": [
    {
      "title": " 轻奢优雅系列130抽3层抽取式面纸-155（3包装）",
      "price": "19.9",
      "imgUrl": "https://cloud.gemii.cc/lizcloud/fs/noauth/media/5ab9a6261e6d8a00227a0d67",
      "linkUrl": "ZKDF/1K6X1/"
    },
    {
      "title": "轻奢优雅系列130抽18包3层抽取式面纸-155（整箱销售）",
      "price": "49.9",
      "imgUrl": "https://cloud.gemii.cc/lizcloud/fs/noauth/media/5ab9a6391e6d8a00227a0d70",
      "linkUrl": "1ASX0/1K6X1/"
    },
    {
      "title": "轻奢优雅系列120抽3层收纳箱装-133（10包）",
      "price": "39.9",
      "imgUrl": "https://cloud.gemii.cc/lizcloud/fs/noauth/media/5ab9a64e1e6d8a00198639d7",
      "linkUrl": "1M1GL/1K6X1/"
    },
    {
      "title": "经典倍韧系列130抽3层抽取式面纸-160（3包装)*2黑/红",
      "price": "28",
      "imgUrl": "https://cloud.gemii.cc/lizcloud/fs/noauth/media/5ab9a6341e6d8a00375467a7",
      "linkUrl": "1XA06/1K6X1/"
    },
    {
      "title": "芭比经典倍韧系列40抽3层随身装-160（整箱销售）",
      "price": "24.9",
      "imgUrl": "https://cloud.gemii.cc/lizcloud/fs/noauth/media/5ab9a6341e6d8a00397439f2",
      "linkUrl": "28IJR/1K6X1/"
    },
    {
      "title": "经典倍韧系列130抽18包3层抽取式面纸-160（整箱销售）",
      "price": "49.9",
      "imgUrl": "https://cloud.gemii.cc/lizcloud/fs/noauth/media/5ab9a6251e6d8a00227a0d63",
      "linkUrl": "D3AH/1K6X1/"
    },
    {
      "title": "经典倍韧系列120抽3层抽取式面纸-140（6联包）",
      "price": "19.9",
      "imgUrl": "https://cloud.gemii.cc/lizcloud/fs/noauth/media/5ab9a6401e6d8a00397439fc",
      "linkUrl": "OBU2/1K6X1/"
    },
    {
      "title": "经典倍韧系列130抽3层抽取式面纸-160（15包）红装礼盒 ",
      "price": "39.9",
      "imgUrl": "https://cloud.gemii.cc/lizcloud/fs/noauth/media/5ab9a63b1e6d8a00227a0d84",
      "linkUrl": "ZKDN/1K6X1/"
    },
    {
      "title": "婴儿家用纸巾抽取式面纸 中宽幅3层130抽12包",
      "price": "39.9",
      "imgUrl": "https://cloud.gemii.cc/lizcloud/fs/noauth/media/5ab9a6231e6d8a00227a0d60",
      "linkUrl": "1URC/1K6X1/"
    },
    {
      "title": "面巾餐巾纸擦手纸方巾纸 小宽幅3层120抽18包",
      "price": "49.9",
      "imgUrl": "https://cloud.gemii.cc/lizcloud/fs/noauth/media/5ab9a6271e6d8a00227a0d69",
      "linkUrl": "OBUI/1K6X1/"
    },
    {
      "title": "无纺布厨房纸巾纯水湿纸巾独立装 10片12包",
      "price": "29.9",
      "imgUrl": "https://cloud.gemii.cc/lizcloud/fs/noauth/media/5ab9a63a1e6d8a00227a0d7b9",
      "linkUrl": "1ASXO/1K6X1/"
    },
    {
      "title": "家用宝宝生活用纸纸巾 大宽幅4层60包",
      "price": "29.9",
      "imgUrl": "https://cloud.gemii.cc/lizcloud/fs/noauth/media/5ab9a64b1e6d8a0039743a00",
      "linkUrl": "1M1H9/1K6X1/"
    },
    {
      "title": "生活用纸餐巾纸盒装面巾纸抽纸 大宽幅3层60抽9盒",
      "price": "34.9",
      "imgUrl": "https://cloud.gemii.cc/lizcloud/fs/noauth/media/5ab9a64a1e6d8a002703668a",
      "linkUrl": "1XA0U/1K6X1/"
    },
    {
      "title": " 婴儿湿巾纸纯水无纺布家庭装小包无香型 10片12包",
      "price": "19.9",
      "imgUrl": "https://cloud.gemii.cc/lizcloud/fs/noauth/media/5ab9a63e1e6d8a00397439f7",
      "linkUrl": "28IKF/1K6X1/"
    },
    {
      "title": " 便携式小包面巾纸 3层48包",
      "price": "19.9",
      "imgUrl": "https://cloud.gemii.cc/lizcloud/fs/noauth/media/5ab9a6231e6d8a00227a0d5d",
      "linkUrl": "1XQ8/1K6X1/"
    },
    {
      "title": "手绘 小黑裙餐巾乳液保湿面纸 3层120抽6包",
      "price": "38",
      "imgUrl": "https://cloud.gemii.cc/lizcloud/fs/noauth/media/5ab9a63a1e6d8a00227a0d7f",
      "linkUrl": "D69T/1K6X1/"
    },
    {
      "title": "手绘 小黑裙柔软保湿便携式纸巾3层60包",
      "price": "39.9",
      "imgUrl": "https://cloud.gemii.cc/lizcloud/fs/noauth/media/5ab9a6161e6d8a00227a0d43",
      "linkUrl": "OETE/1K6X1/"
    },
    {
      "title": "手绘系列 小蓝裙软抽保湿可湿水餐巾纸 4层15包",
      "price": "39.9",
      "imgUrl": "https://cloud.gemii.cc/lizcloud/fs/noauth/media/5ab9a6341e6d8a00397439ef",
      "linkUrl": "1AVWK/1K6X1/"
    }
  ],
  "dataThreeTop": "芭比系列专区",
  "dataThree": [
    {
      "title": " Ashe 尺寸型卫生巾日用 S号230mm4盒32片",
      "price": "39.9",
      "imgUrl": "https://cloud.gemii.cc/lizcloud/fs/noauth/media/5ab9eab11e6d8a0039743bbf",
      "linkUrl": "1ASX8/1K6X1/"
    },
    {
      "title": "Ashe 尺寸型卫生巾日用 M码245mm 4盒32片",
      "price": "39.9",
      "imgUrl": "https://cloud.gemii.cc/lizcloud/fs/noauth/media/5ab9eac51e6d8a00227a0f1b",
      "linkUrl": "1M1GT/1K6X1/"
    },
    {
      "title": "Ashe 尺寸型卫生巾日用 L码280mm 4盒32片",
      "price": "39.9",
      "imgUrl": "https://cloud.gemii.cc/lizcloud/fs/noauth/media/5ab9ead11e6d8a0039743bc1",
      "linkUrl": "1XA0E/1K6X1/"
    },
    {
      "title": "555贴身薄款棉柔日夜两用套装混合装 12包60片",
      "price": "28",
      "imgUrl": "https://cloud.gemii.cc/lizcloud/fs/noauth/media/5ab9a6151e6d8a00227a0d40",
      "linkUrl": "28IJZ/1K6X1/"
    },
    {
      "title": "555贴身超薄棉柔日夜两用姨妈巾 12包135片",
      "price": "29.9",
      "imgUrl": "https://cloud.gemii.cc/lizcloud/fs/noauth/media/5ab9a6411e6d8a00397439fe",
      "linkUrl": "1UR4/1K6X1/"
    },
    {
      "title": "555健康日用10*2 夜用10*1 护垫25*1 55片",
      "price": "19.9",
      "imgUrl": "https://cloud.gemii.cc/lizcloud/fs/noauth/media/5ab9a63b1e6d8a00227a0d82",
      "linkUrl": "D3AP/1K6X1/"
    },
    {
      "title": "555超薄棉柔日夜组合装卫生巾 12+1包90片",
      "price": "29",
      "imgUrl": "https://cloud.gemii.cc/lizcloud/fs/noauth/media/5ab9a63a1e6d8a00227a0d78",
      "linkUrl": "OBUA/1K6X1/"
    }
  ]
}
